{
  "id": "ee9ea106-5893-4e21-ba9b-0386efb11a96",
  "name": "id",
  "isOverridable": true,
  "entries": [
    {
      "value": "one",
      "synonyms": [
        "one",
        "1"
      ]
    },
    {
      "value": "two",
      "synonyms": [
        "two",
        "2"
      ]
    },
    {
      "value": "three",
      "synonyms": [
        "three",
        "3"
      ]
    },
    {
      "value": "zero",
      "synonyms": [
        "zero",
        "0"
      ]
    }
  ],
  "isEnum": false,
  "automatedExpansion": false
}