{
  "id": "74a09b16-de7a-4164-a0b9-a3f071fe77a8",
  "name": "all",
  "isOverridable": true,
  "entries": [
    {
      "value": "true",
      "synonyms": [
        "true",
        "all",
        "everywhere",
        "every",
        "each",
        "everything"
      ]
    }
  ],
  "isEnum": false,
  "automatedExpansion": false
}