{
  "id": "b1363326-5112-4933-adc2-87bacf7fcd58",
  "name": "payment-card",
  "isOverridable": true,
  "entries": [
    {
      "value": "Visa credit",
      "synonyms": [
        "Visa credit"
      ]
    },
    {
      "value": "Visa debit",
      "synonyms": [
        "Visa debit"
      ]
    },
    {
      "value": "Mastercard",
      "synonyms": [
        "Mastercard"
      ]
    },
    {
      "value": "American Express",
      "synonyms": [
        "American Express",
        "Amex"
      ]
    }
  ],
  "isEnum": false,
  "automatedExpansion": true
}