{
  "id": "b2dbc5de-3d10-4a87-9350-9b904d938ef6",
  "name": "presence",
  "isOverridable": true,
  "entries": [
    {
      "value": "present",
      "synonyms": [
        "present",
        "here",
        "seen",
        "visible",
        "available",
        "accountable",
        "accounted for"
      ]
    },
    {
      "value": "not present",
      "synonyms": [
        "not present",
        "not here",
        "not seen",
        "hasn\u0027t been seen",
        "unavailable",
        "unaccountable",
        "unaccounted for",
        "not accounted for",
        "unseen"
      ]
    }
  ],
  "isEnum": false,
  "automatedExpansion": true
}