{
  "id": "4233acc2-f813-401a-bbb0-27d06a090b3e",
  "name": "rfid",
  "isOverridable": true,
  "entries": [
    {
      "value": "Zebra",
      "synonyms": [
        "Zebra",
        "Zebra RFID",
        "Zebra RFID scanner",
        "Zebra device",
        "Zebra scanner",
        "Zebra RFID device"
      ]
    },
    {
      "value": "TSL",
      "synonyms": [
        "TSL",
        "TSL RFID",
        "TSL RFID scanner",
        "TSL RFID device",
        "TSL device",
        "TSL scanner"
      ]
    }
  ],
  "isEnum": false,
  "automatedExpansion": true
}