{
  "userSays": [
    {
      "id": "d4505b35-e644-4c82-ad66-c27a95deaa96",
      "data": [
        {
          "text": "How many times have I seen  "
        },
        {
          "text": "keith",
          "alias": "ItemName",
          "meta": "@ItemName",
          "userDefined": true
        },
        {
          "text": "?"
        }
      ],
      "isTemplate": false,
      "count": 0
    }
  ],
  "id": "569b603f-22c7-4a6f-85ae-aa9627495ab4",
  "name": "ItemCountWithName",
  "auto": true,
  "contexts": [],
  "responses": [
    {
      "resetContexts": false,
      "affectedContexts": [],
      "parameters": [
        {
          "required": true,
          "dataType": "@ItemName",
          "name": "ItemName",
          "value": "$ItemName",
          "prompts": [
            "What is the student\u0027s name?"
          ]
        }
      ],
      "messages": [
        {
          "type": 0,
          "speech": []
        }
      ],
      "defaultResponsePlatforms": {}
    }
  ],
  "priority": 500000,
  "webhookUsed": false,
  "webhookForSlotFilling": false,
  "fallbackIntent": false,
  "events": []
}