{
  "userSays": [
    {
      "id": "59c83f9b-e9ba-4555-88e4-6edcef97a5d2",
      "data": [
        {
          "text": "Connect an RFID scanner"
        }
      ],
      "isTemplate": false,
      "count": 0
    },
    {
      "id": "04f3523b-9c20-4c09-805d-505924952c73",
      "data": [
        {
          "text": "Pair an",
          "meta": "@sys.ignore",
          "userDefined": false
        },
        {
          "text": " RFID scanner"
        }
      ],
      "isTemplate": false,
      "count": 0
    },
    {
      "id": "33caea5d-a02c-4467-8fb3-b82274ef73f2",
      "data": [
        {
          "text": "More RFID scanners"
        }
      ],
      "isTemplate": false,
      "count": 0
    },
    {
      "id": "ceb71dea-0c52-4444-95bb-2e0d19cad765",
      "data": [
        {
          "text": "Another RFID scanner"
        }
      ],
      "isTemplate": false,
      "count": 0
    },
    {
      "id": "637a3e2d-ceff-4d0c-908d-b9cadb7b92a6",
      "data": [
        {
          "text": "New RFID scanner"
        }
      ],
      "isTemplate": false,
      "count": 0
    },
    {
      "id": "4613b6a3-d430-4600-bdca-b85a68401abd",
      "data": [
        {
          "text": "Connect a "
        },
        {
          "text": "Zebra",
          "alias": "rfid",
          "meta": "@rfid",
          "userDefined": true
        }
      ],
      "isTemplate": false,
      "count": 0
    },
    {
      "id": "da2359a3-68ea-4bc4-99d0-51ae31a07c84",
      "data": [
        {
          "text": "More "
        },
        {
          "text": "Zebra",
          "alias": "rfid",
          "meta": "@rfid",
          "userDefined": true
        }
      ],
      "isTemplate": false,
      "count": 0
    },
    {
      "id": "cbeadf77-ec59-4c75-8ca5-431143e98231",
      "data": [
        {
          "text": "New "
        },
        {
          "text": "Zebra",
          "alias": "rfid",
          "meta": "@rfid",
          "userDefined": true
        }
      ],
      "isTemplate": false,
      "count": 0
    },
    {
      "id": "2a67c893-4fd7-4b30-8dd2-6aca8f745026",
      "data": [
        {
          "text": "Pair a "
        },
        {
          "text": "Zebra",
          "alias": "rfid",
          "meta": "@rfid",
          "userDefined": false
        }
      ],
      "isTemplate": false,
      "count": 0
    },
    {
      "id": "89bcda94-3b68-4af7-9dcb-37f04c5f93fb",
      "data": [
        {
          "text": "Another "
        },
        {
          "text": "Zebra",
          "alias": "rfid",
          "meta": "@rfid",
          "userDefined": true
        }
      ],
      "isTemplate": false,
      "count": 1
    },
    {
      "id": "94d2ad4e-e03d-43a3-afe2-2107c5b57d40",
      "data": [
        {
          "text": "New RFID device"
        }
      ],
      "isTemplate": false,
      "count": 0
    },
    {
      "id": "93a7a3c5-60e6-4353-9e38-03c3cbcb5406",
      "data": [
        {
          "text": "Another RFID device"
        }
      ],
      "isTemplate": false,
      "count": 0
    },
    {
      "id": "02aed588-4eb0-41ff-a79e-df0f85b556c9",
      "data": [
        {
          "text": "More RFID devices"
        }
      ],
      "isTemplate": false,
      "count": 0
    },
    {
      "id": "eed8a194-cf59-4322-8a25-6c13b9819878",
      "data": [
        {
          "text": "Pair an RFID device"
        }
      ],
      "isTemplate": false,
      "count": 0
    },
    {
      "id": "23f65092-d579-409f-b25e-9c1451c2e41c",
      "data": [
        {
          "text": "Connect an RFID device"
        }
      ],
      "isTemplate": false,
      "count": 0
    }
  ],
  "id": "9a31d7f5-5af7-4350-8a90-a6a9ccdcc9dc",
  "name": "rfid-pair",
  "auto": true,
  "contexts": [],
  "responses": [
    {
      "resetContexts": false,
      "affectedContexts": [],
      "parameters": [
        {
          "required": true,
          "dataType": "@rfid",
          "name": "rfid",
          "value": "$rfid",
          "prompts": [
            "Which type of RFID device?"
          ],
          "isList": true
        }
      ],
      "messages": [
        {
          "type": 0,
          "speech": "OK, put the device in pairing mode."
        }
      ]
    }
  ],
  "priority": 500000,
  "webhookUsed": false,
  "webhookForSlotFilling": false,
  "fallbackIntent": false,
  "events": []
}